<?xml version="1.0" encoding="utf-8"?>
<!-- Generator: Adobe Illustrator 19.0.0, SVG Export Plug-In . SVG Version: 6.00 Build 0)  -->
<svg version="1.1" id="Layer_1" xmlns="http://www.w3.org/2000/svg" xmlns:xlink="http://www.w3.org/1999/xlink" x="0px" y="0px"
	 width="612px" height="792px" viewBox="0 0 612 792" enable-background="new 0 0 612 792" xml:space="preserve">
<linearGradient id="XMLID_11_" gradientUnits="userSpaceOnUse" x1="305.9997" y1="213.9554" x2="305.9997" y2="591.1298">
	<stop  offset="0" style="stop-color:#F69321"/>
	<stop  offset="0.2188" style="stop-color:#F08A23"/>
	<stop  offset="0.6084" style="stop-color:#E57225"/>
	<stop  offset="1" style="stop-color:#D95427"/>
</linearGradient>
<path id="XMLID_2_" fill="url(#XMLID_11_)" d="M431.972,281.818H419.46v-7.811h-34.141v7.811h-20.53v-6.508
	c0-18.355-14.935-33.283-33.281-33.283h-51.003c-18.358,0-33.282,14.928-33.282,33.283v6.508h-20.541v-7.811H192.54v7.811h-12.511
	c-14.221,0-25.761,11.54-25.761,25.77v177.358c0,14.23,11.54,25.766,25.761,25.766h73.595l8.581-46.525l-1.857,46.525l12.869,39.261
	v-112.89h-48.559L306,325.662l81.346,111.42h-48.568v112.89l12.876-39.261l-1.855-46.525l8.579,46.525h73.595
	c14.221,0,25.76-11.535,25.76-25.766V307.588C457.731,293.357,446.192,281.818,431.972,281.818z M349.755,281.818h-87.502v-6.508
	c0-10.067,8.183-18.25,18.251-18.25h51.003c10.057,0,18.247,8.183,18.247,18.25V281.818z"/>
<g id="XMLID_1_">
</g>
<g id="XMLID_5_">
</g>
<g id="XMLID_6_">
</g>
<g id="XMLID_7_">
</g>
<g id="XMLID_8_">
</g>
<g id="XMLID_9_">
</g>
</svg>
